module gitlab.com/alibitek-go/tracing/jaeger-quickstart

go 1.15

require (
	github.com/HdrHistogram/hdrhistogram-go v1.0.0 // indirect
	github.com/opentracing/opentracing-go v1.2.0
	github.com/uber/jaeger-client-go v2.25.0+incompatible
	github.com/uber/jaeger-lib v2.4.0+incompatible
	go.uber.org/atomic v1.7.0 // indirect
)
